slides
…
---

### Exercise Review

What types of visualization techniques and software to students seem most
familiar with?

```r
responses %>%
  count(visualization, package, defaults) %>%
  arrange(-n)
```

```
## # A tibble: 21 × 4
##    visualization package defaults     n
##    <chr>         <chr>   <chr>    <int>
##  1 barplot       ggplot2 no           6
##  2 scatterplot   ggplot2 no           5
##  3 scatterplot   base R  yes          4
##  4 scatterplot   ggplot2 yes          3
##  5 barplot       ggplot2 yes          2
##  6 time series   base R  no           2
##  7 time series   ggplot2 no           2
##  8 barplot       base R  yes          1
##  9 boxplot       ggplot2 no           1
## 10 candlestick   base R  no           1
## # … with 11 more rows
```
…
