…
    library(tidyverse)
    library(skimr)

1.  Let’s work through the example of tidying a WHO dataset. This was
    discussed in the reading and is good practice in pivoting and
    deriving new variables.

2.  The raw data, along with a summary from the `skimr` package, is
    shown below (notice the small multiples!).

<!-- -->

    who

    ## # A tibble: 7,240 × 60
    ##    country     iso2  iso3   year new_s…¹ new_s…² new_s…³ new_s…⁴ new_s…⁵ new_s…⁶
    ##    <chr>       <chr> <chr> <int>   <int>   <int>   <int>   <int>   <int>   <int>
    ##  1 Afghanistan AF    AFG    1980      NA      NA      NA      NA      NA      NA
    ##  2 Afghanistan AF    AFG    1981      NA      NA      NA      NA      NA      NA
    ##  3 Afghanistan AF    AFG    1982      NA      NA      NA      NA      NA      NA
    ##  4 Afghanistan AF    AFG    1983      NA      NA      NA      NA      NA      NA
    ##  5 Afghanistan AF    AFG    1984      NA      NA      NA      NA      NA      NA
    ##  6 Afghanistan AF    AFG    1985      NA      NA      NA      NA      NA      NA
    ##  7 Afghanistan AF    AFG    1986      NA      NA      NA      NA      NA      NA
    ##  8 Afghanistan AF    AFG    1987      NA      NA      NA      NA      NA      NA
    ##  9 Afghanistan AF    AFG    1988      NA      NA      NA      NA      NA      NA
    ## 10 Afghanistan AF    AFG    1989      NA      NA      NA      NA      NA      NA
    ## # … with 7,230 more rows, 50 more variables: new_sp_m65 <int>,
    ## #   new_sp_f014 <int>, new_sp_f1524 <int>, new_sp_f2534 <int>,
    ## #   new_sp_f3544 <int>, new_sp_f4554 <int>, new_sp_f5564 <int>,
    ## #   new_sp_f65 <int>, new_sn_m014 <int>, new_sn_m1524 <int>,
    ## #   new_sn_m2534 <int>, new_sn_m3544 <int>, new_sn_m4554 <int>,
    ## #   new_sn_m5564 <int>, new_sn_m65 <int>, new_sn_f014 <int>,
    ## #   new_sn_f1524 <int>, new_sn_f2534 <int>, new_sn_f3544 <int>, …
…
<!-- -->

    who_longer <- who %>% 
      pivot_longer(
        cols = new_sp_m014:newrel_f65,  # notice we can refer to groups of columns without naming each one
        names_to = "key", 
        values_to = "cases", 
        values_drop_na = TRUE # if a cell is empty, we do not keep it in the tidy version
      )

    who_longer

    ## # A tibble: 76,046 × 6
    ##    country     iso2  iso3   year key          cases
    ##    <chr>       <chr> <chr> <int> <chr>        <int>
    ##  1 Afghanistan AF    AFG    1997 new_sp_m014      0
    ##  2 Afghanistan AF    AFG    1997 new_sp_m1524    10
    ##  3 Afghanistan AF    AFG    1997 new_sp_m2534     6
    ##  4 Afghanistan AF    AFG    1997 new_sp_m3544     3
    ##  5 Afghanistan AF    AFG    1997 new_sp_m4554     5
    ##  6 Afghanistan AF    AFG    1997 new_sp_m5564     2
    ##  7 Afghanistan AF    AFG    1997 new_sp_m65       0
    ##  8 Afghanistan AF    AFG    1997 new_sp_f014      5
    ##  9 Afghanistan AF    AFG    1997 new_sp_f1524    38
    ## 10 Afghanistan AF    AFG    1997 new_sp_f2534    36
    ## # … with 76,036 more rows

1.  The new column `key` contains several variables at once. We can
    `separate` it into gender and age group.

<!-- -->

    who_separate <- who_longer %>% 
      mutate(key = str_replace(key, "newrel", "new_rel")) %>%
      separate(key, c("new", "type", "sexage"), sep = "_") %>%
      separate(sexage, c("sex", "age"), sep = 1)

    who_separate

    ## # A tibble: 76,046 × 9
    ##    country     iso2  iso3   year new   type  sex   age   cases
    ##    <chr>       <chr> <chr> <int> <chr> <chr> <chr> <chr> <int>
    ##  1 Afghanistan AF    AFG    1997 new   sp    m     014       0
    ##  2 Afghanistan AF    AFG    1997 new   sp    m     1524     10
    ##  3 Afghanistan AF    AFG    1997 new   sp    m     2534      6
    ##  4 Afghanistan AF    AFG    1997 new   sp    m     3544      3
    ##  5 Afghanistan AF    AFG    1997 new   sp    m     4554      5
    ##  6 Afghanistan AF    AFG    1997 new   sp    m     5564      2
    ##  7 Afghanistan AF    AFG    1997 new   sp    m     65        0
    ##  8 Afghanistan AF    AFG    1997 new   sp    f     014       5
    ##  9 Afghanistan AF    AFG    1997 new   sp    f     1524     38
    ## 10 Afghanistan AF    AFG    1997 new   sp    f     2534     36
    ## # … with 76,036 more rows
…
<!-- -->

    who %>%
      pivot_longer(
        cols = new_sp_m014:newrel_f65, 
        names_to = "key", 
        values_to = "cases", 
        values_drop_na = TRUE # if a cell is empty, we do not keep it in the tidy version
      ) %>%
      mutate(key = str_replace(key, "newrel", "new_rel")) %>%
      separate(key, c("new", "type", "sexage"), sep = "_") %>%
      separate(sexage, c("sex", "age"), sep = 1)

    ## # A tibble: 76,046 × 9
    ##    country     iso2  iso3   year new   type  sex   age   cases
    ##    <chr>       <chr> <chr> <int> <chr> <chr> <chr> <chr> <int>
    ##  1 Afghanistan AF    AFG    1997 new   sp    m     014       0
    ##  2 Afghanistan AF    AFG    1997 new   sp    m     1524     10
    ##  3 Afghanistan AF    AFG    1997 new   sp    m     2534      6
    ##  4 Afghanistan AF    AFG    1997 new   sp    m     3544      3
    ##  5 Afghanistan AF    AFG    1997 new   sp    m     4554      5
    ##  6 Afghanistan AF    AFG    1997 new   sp    m     5564      2
    ##  7 Afghanistan AF    AFG    1997 new   sp    m     65        0
    ##  8 Afghanistan AF    AFG    1997 new   sp    f     014       5
    ##  9 Afghanistan AF    AFG    1997 new   sp    f     1524     38
    ## 10 Afghanistan AF    AFG    1997 new   sp    f     2534     36
    ## # … with 76,036 more rows
…
