…
1.  The index is useful because it creates a data consistency check. If
    a few days are missing from a daily dataset, the index makes it easy
    to detect and fill in these gaps. Notice that when we print a
    tsibble object, it prints the index and guessed sampling frequency
    on the top right corner.

<!-- -->

    days <- seq(as_date("2021-01-01"), as_date("2021-01-31"), by = "day")
    days <- days[-5] # Skip January 5

    x <- tsibble(day = days, value = rnorm(30), index = day)
    fill_gaps(x)

    ## # A tsibble: 31 x 2 [1D]
    ##    day          value
    ##    <date>       <dbl>
    ##  1 2021-01-01  0.771 
    ##  2 2021-01-02 -0.238 
    ##  3 2021-01-03  0.0603
    ##  4 2021-01-04 -0.494 
    ##  5 2021-01-05 NA     
    ##  6 2021-01-06 -1.45  
    ##  7 2021-01-07  0.877 
    ##  8 2021-01-08 -1.56  
    ##  9 2021-01-09  1.34  
    ## 10 2021-01-10 -1.68  
    ## # … with 21 more rows

1.  Tsibbles can store more than one time series at a time. In this
    case, we have to specify key columns that distinguish between the
    separate time series. For example, in the olympics running times
    dataset,

<!-- -->

    olympic_running

    ## # A tsibble: 312 x 4 [4Y]
    ## # Key:       Length, Sex [14]
    ##     Year Length Sex    Time
    ##    <int>  <int> <chr> <dbl>
    ##  1  1896    100 men    12  
    ##  2  1900    100 men    11  
    ##  3  1904    100 men    11  
    ##  4  1908    100 men    10.8
    ##  5  1912    100 men    10.8
    ##  6  1916    100 men    NA  
    ##  7  1920    100 men    10.8
    ##  8  1924    100 men    10.6
    ##  9  1928    100 men    10.8
    ## 10  1932    100 men    10.3
    ## # … with 302 more rows

the keys are running distance and sex. If we were creating a tsibble
from a data.frame containing these multiple time series, we would need
to specify the keys. This protects against accidentally having duplicate
observations at given times.

    olympic_df <- as.data.frame(olympic_running)
    as_tsibble(olympic_df, index = Year, key = c("Sex", "Length")) # what happens if we remove key?

    ## # A tsibble: 312 x 4 [4Y]
    ## # Key:       Sex, Length [14]
    ##     Year Length Sex    Time
    ##    <int>  <int> <chr> <dbl>
    ##  1  1896    100 men    12  
    ##  2  1900    100 men    11  
    ##  3  1904    100 men    11  
    ##  4  1908    100 men    10.8
    ##  5  1912    100 men    10.8
    ##  6  1916    100 men    NA  
    ##  7  1920    100 men    10.8
    ##  8  1924    100 men    10.6
    ##  9  1928    100 men    10.8
    ## 10  1932    100 men    10.3
    ## # … with 302 more rows
…
2.  For example, this computes the total cost of Australian
    pharmaceuticals per month for a particular type of script. We simply
    filter to the script type and take the sum of costs.

<!-- -->

    PBS %>%
      filter(ATC2 == "A10") %>%
      summarise(TotalC = sum(Cost))

    ## # A tsibble: 204 x 2 [1M]
    ##       Month  TotalC
    ##       <mth>   <dbl>
    ##  1 1991 Jul 3526591
    ##  2 1991 Aug 3180891
    ##  3 1991 Sep 3252221
    ##  4 1991 Oct 3611003
    ##  5 1991 Nov 3565869
    ##  6 1991 Dec 4306371
    ##  7 1992 Jan 5088335
    ##  8 1992 Feb 2814520
    ##  9 1992 Mar 2985811
    ## 10 1992 Apr 3204780
    ## # … with 194 more rows
…
