…
1.  Computing these kinds of summary statistics by hand would be
    tedious. Fortunately, the feasts package makes it easy to extract a
    variety of statistics for tsibble objects.

<!-- -->

    tourism_features <- tourism %>%
      features(Trips, feature_set(pkgs = "feasts"))

    tourism_features

    ## # A tibble: 304 × 52
    ##    Region    State Purpose key   trend…¹ seaso…² seaso…³ seaso…⁴ spiki…⁵ linea…⁶
    ##    <chr>     <chr> <chr>   <chr>   <dbl>   <dbl>   <dbl>   <dbl>   <dbl>   <dbl>
    ##  1 Adelaide  Sout… Busine… Adel…   0.464   0.407       3       1 1.58e+2  -5.31 
    ##  2 Adelaide  Sout… Holiday Adel…   0.554   0.619       1       2 9.17e+0  49.0  
    ##  3 Adelaide  Sout… Other   Adel…   0.746   0.202       2       1 2.10e+0  95.1  
    ##  4 Adelaide  Sout… Visiti… Adel…   0.435   0.452       1       3 5.61e+1  34.6  
    ##  5 Adelaide… Sout… Busine… Adel…   0.464   0.179       3       0 1.03e-1   0.968
    ##  6 Adelaide… Sout… Holiday Adel…   0.528   0.296       2       1 1.77e-1  10.5  
    ##  7 Adelaide… Sout… Other   Adel…   0.593   0.404       2       2 4.44e-4   4.28 
    ##  8 Adelaide… Sout… Visiti… Adel…   0.488   0.254       0       3 6.50e+0  34.2  
    ##  9 Alice Sp… Nort… Busine… Alic…   0.534   0.251       0       1 1.69e-1  23.8  
    ## 10 Alice Sp… Nort… Holiday Alic…   0.381   0.832       3       1 7.39e-1 -19.6  
    ## # … with 294 more rows, 42 more variables: curvature <dbl>, stl_e_acf1 <dbl>,
    ## #   stl_e_acf10 <dbl>, acf1 <dbl>, acf10 <dbl>, diff1_acf1 <dbl>,
    ## #   diff1_acf10 <dbl>, diff2_acf1 <dbl>, diff2_acf10 <dbl>, season_acf1 <dbl>,
    ## #   pacf5 <dbl>, diff1_pacf5 <dbl>, diff2_pacf5 <dbl>, season_pacf <dbl>,
    ## #   zero_run_mean <dbl>, nonzero_squared_cv <dbl>, zero_start_prop <dbl>,
    ## #   zero_end_prop <dbl>, lambda_guerrero <dbl>, kpss_stat <dbl>,
    ## #   kpss_pvalue <dbl>, pp_stat <dbl>, pp_pvalue <dbl>, ndiffs <int>, …
…
